Guess the number (vhdl project)/a.vcd
$date
  Wed Feb 24 10:32:55 2021
$end
$version
  GHDL v0
$end
$timescale
  1 fs
$end
$var reg 1 ! clk $end
$var reg 4 " input_num[3:0] $end
$var reg 5 # gamehistory_data[4:0] $end
$var reg 1 $ gt_led $end
$var reg 1 % ls_led $end
$var reg 1 & eql_led $end
$var reg 1 ' lock_led $end
$var reg 7 ( sevenseg_data[0:6] $end
$scope module t0 $end
$var reg 1 ) clk $end
$var reg 4 * input_num[3:0] $end
$var reg 5 + gamehistory_data[4:0] $end
$var reg 1 , gt_led $end
$var reg 1 - ls_led $end
$var reg 1 . eql_led $end
$var reg 1 / lock_led $end
$var reg 7 0 sevenseg_data[0:6] $end
$var reg 1 1 high_end $end
$var reg 1 2 low_end $end
$var reg 4 3 nbitrandomoutput[3:0] $end
$var reg 4 4 nbitrandomnumber[3:0] $end
$var reg 4 5 nbitusernumber[3:0] $end
$var reg 1 6 gt $end
$var reg 1 7 ls $end
$var reg 1 8 eql $end
$var reg 1 9 disabled $end
$var reg 3 : counteroutput[2:0] $end
$var reg 1 ; clk_delay $end
$var reg 1 < clk_delay2 $end
$scope module nbitrandomgenerator_i0 $end
$var reg 1 = clk $end
$var reg 4 > num[3:0] $end
$var reg 6 ? rbuffer[5:0] $end
$upscope $end
$scope module nbitnumberregister_i0_randomnumber $end
$var reg 1 @ clk $end
$var reg 4 A d[3:0] $end
$var reg 1 B ld $end
$var reg 1 C clr $end
$var reg 4 D num[3:0] $end
$upscope $end
$scope module nbitnumberregister_i1_usernumber $end
$var reg 1 E clk $end
$var reg 4 F d[3:0] $end
$var reg 1 G ld $end
$var reg 1 H clr $end
$var reg 4 I num[3:0] $end
$upscope $end
$scope module nbitcomparator_i0 $end
$var reg 4 J a[3:0] $end
$var reg 4 K b[3:0] $end
$var reg 1 L a_gt_b $end
$var reg 1 M b_gt_a $end
$var reg 1 N eql $end
$var reg 4 O gt_v[3:0] $end
$var reg 4 P ls_v[3:0] $end
$var reg 4 Q eql_v[3:0] $end
$var reg 3 R private_gt_v[2:0] $end
$var reg 3 S private_ls_v[2:0] $end
$var reg 3 T private_eql_v[2:0] $end
$scope module gen_bcomps(0) $end
$scope module otherbits $end
$scope module ur_st0 $end
$var reg 1 U a $end
$var reg 1 V b $end
$var reg 1 W a_gt_b $end
$var reg 1 X b_gt_a $end
$var reg 1 Y eql $end
$upscope $end
$upscope $end
$upscope $end
$scope module gen_bcomps(1) $end
$scope module otherbits $end
$scope module ur_st0 $end
$var reg 1 Z a $end
$var reg 1 [ b $end
$var reg 1 \ a_gt_b $end
$var reg 1 ] b_gt_a $end
$var reg 1 ^ eql $end
$upscope $end
$upscope $end
$upscope $end
$scope module gen_bcomps(2) $end
$scope module otherbits $end
$scope module ur_st0 $end
$var reg 1 _ a $end
$var reg 1 ` b $end
$var reg 1 a a_gt_b $end
$var reg 1 b b_gt_a $end
$var reg 1 c eql $end
$upscope $end
$upscope $end
$upscope $end
$scope module gen_bcomps(3) $end
$scope module high_bit $end
$scope module uh $end
$var reg 1 d a $end
$var reg 1 e b $end
$var reg 1 f a_gt_b $end
$var reg 1 g b_gt_a $end
$var reg 1 h eql $end
$upscope $end
$upscope $end
$upscope $end
$upscope $end
$scope module gamehistory_i0 $end
$var reg 1 i clk $end
$var reg 1 j data_in $end
$var reg 5 k data[4:0] $end
$var reg 1 l pop $end
$var reg 1 m data_out $end
$var reg 1 n empty $end
$var reg 1 o full $end
$var reg 1 p push $end
$var reg 1 q enable $end
$var reg 1 r inp $end
$var integer 32 s counter $end
$scope module link0 $end
$var reg 1 t clk $end
$var reg 1 u data_in $end
$var reg 1 v push $end
$var reg 1 w pop $end
$var reg 1 x data_out $end
$var reg 1 y empty $end
$var reg 1 z full $end
$var reg 5 { loc_data[0:4] $end
$var integer 32 | idx $end
$upscope $end
$scope module link1 $end
$var reg 1 } clk $end
$var reg 1 !" enable $end
$var reg 1 "" inp $end
$var reg 5 #" data[4:0] $end
$var reg 5 $" loc_data[4:0] $end
$upscope $end
$upscope $end
$scope module leds_i0 $end
$var reg 1 %" gt $end
$var reg 1 &" ls $end
$var reg 1 '" eql $end
$var reg 1 (" disabled $end
$var reg 1 )" gt_led $end
$var reg 1 *" ls_led $end
$var reg 1 +" eql_led $end
$var reg 1 ," lock_led $end
$upscope $end
$scope module nbitcounter_i0 $end
$var reg 1 -" clr $end
$var reg 1 ." clk $end
$var reg 3 /" z[2:0] $end
$var reg 1 0" disabled $end
$var reg 3 1" zu[2:0] $end
$upscope $end
$scope module sevensegment_i0 $end
$var reg 3 2" n[2:0] $end
$var reg 7 3" o[0:6] $end
$upscope $end
$upscope $end
$enddefinitions $end
#0
0!
b0000 "
bUUUUU #
0$
0%
0&
0'
b1111110 (
0)
b0000 *
bUUUUU +
0,
0-
0.
0/
b1111110 0
11
02
b1101 3
bUUUU 4
bUUUU 5
U6
U7
U8
09
b000 :
0;
0<
0=
b1101 >
b001101 ?
0@
b1101 A
1B
0C
bUUUU D
0E
b0000 F
1G
0H
bUUUU I
bUUUU J
bUUUU K
UL
UM
UN
bUUUU O
bUUUU P
bUUUU Q
bUUU R
bUUU S
bUUU T
UU
UV
UW
UX
UY
UZ
U[
U\
U]
U^
U_
U`
Ua
Ub
Uc
Ud
Ue
Uf
Ug
Uh
0i
Uj
bUUUUU k
0l
Um
1n
0o
1p
0q
Ur
b0 s
0t
Uu
1v
0w
Ux
1y
0z
bUUUUU {
b0 |
0}
0!"
U""
bUUUUU #"
bUUUUU $"
U%"
U&"
U'"
0("
0)"
0*"
0+"
0,"
0-"
0."
b000 /"
00"
b000 1"
b000 2"
b1111110 3"
#10000000
1!
b1101 "
1&
b0110000 (
1)
b1101 *
1.
b0110000 0
b0110 3
b1101 4
b1101 5
06
07
18
b001 :
1;
1=
b0110 >
b100110 ?
1@
b0110 A
b1101 D
1E
b1101 F
b1101 I
b1101 J
b1101 K
0L
0M
1N
b0000 O
b0000 P
b1111 Q
b000 R
b000 S
b111 T
1U
1V
0W
0X
1Y
0Z
0[
0\
0]
1^
1_
1`
0a
0b
1c
1d
1e
0f
0g
1h
1j
1u
0%"
0&"
1'"
1+"
1."
b001 /"
b001 1"
b001 2"
b0110000 3"
#20000000
0!
0)
0;
1<
0=
0@
0E
1i
0n
1t
0y
b1UUUU {
b1 |
1}
0."
#30000000
1!
b1010 "
1$
0&
b1101101 (
1)
b1010 *
1,
0.
b1101101 0
b0011 3
b0110 4
b1010 5
16
08
b010 :
1;
0<
1=
b0011 >
b110011 ?
1@
b0011 A
b0110 D
1E
b1010 F
b1010 I
b1010 J
b0110 K
1L
0N
b1111 O
b0000 Q
b100 S
b011 T
0U
0V
1Z
1[
0_
1b
0c
0e
1f
0h
0i
0j
0t
0u
0}
1%"
0'"
1)"
0+"
1."
b010 /"
b010 1"
b010 2"
b1101101 3"
#40000000
0!
0)
0;
1<
0=
0@
0E
1i
1t
b10UUU {
b10 |
1}
0."
#50000000
1!
b0011 "
0$
1&
b1111001 (
1)
b0011 *
0,
1.
b1111001 0
b1001 3
b0011 4
b0011 5
06
18
b011 :
1;
0<
1=
b1001 >
b011001 ?
1@
b1001 A
b0011 D
1E
b0011 F
b0011 I
b0011 J
b0011 K
0L
1N
b0000 O
b1111 Q
b000 S
b111 T
1U
1V
0`
0b
1c
0d
0f
1h
0i
1j
0t
1u
0}
0%"
1'"
0)"
1+"
1."
b011 /"
b011 1"
b011 2"
b1111001 3"
#60000000
0!
0)
0;
1<
0=
0@
0E
1i
1t
b101UU {
b11 |
1}
0."
#70000000
1!
b1101 "
1$
0&
b0110011 (
1)
b1101 *
1,
0.
b0110011 0
b1100 3
b1001 4
b1101 5
16
08
b100 :
1;
0<
1=
b1100 >
b101100 ?
1@
b1100 A
b1001 D
1E
b1101 F
b1101 I
b1101 J
b1001 K
1L
0N
b0111 O
b1000 Q
b100 R
b011 T
0Z
0[
1_
1a
0c
1d
1e
0i
0j
0t
0u
0}
1%"
0'"
1)"
0+"
1."
b100 /"
b100 1"
b100 2"
b0110011 3"
#80000000
0!
0)
0;
1<
0=
0@
0E
1i
1t
b1010U {
b100 |
1}
0."
#90000000
1!
b0101 "
0$
1%
b1011011 (
1)
b0101 *
0,
1-
b1011011 0
b0110 3
b1100 4
b0101 5
06
17
b101 :
1;
0<
1=
b0110 >
b010110 ?
1@
b0110 A
b1100 D
1E
b0101 F
b0101 I
b0101 J
b1100 K
0L
1M
b0000 O
b1111 P
b0000 Q
b001 R
b110 T
0V
1W
0Y
1`
0a
1c
0d
1g
0h
0i
0t
0}
0%"
1&"
0)"
1*"
1."
b101 /"
b101 1"
b101 2"
b1011011 3"
#100000000
0!
0)
0;
1<
0=
0@
0E
1i
1o
1t
1z
b10100 {
b101 |
1}
0."
#110000000
1!
0%
1'
b1011111 (
1)
0-
1/
b1011111 0
b1011 3
b0110 4
19
b110 :
1;
0<
1=
b1011 >
b101011 ?
1@
b1011 A
b0110 D
1E
b0110 K
b0011 P
b1100 Q
b010 S
b100 T
1[
1]
0^
0e
0g
1h
0i
0t
0}
1("
0*"
1,"
1."
b110 /"
10"
b110 1"
b110 2"
b1011111 3"
#120000000
0!
0)
0;
1<
0=
0@
0E
1i
1l
0p
1q
1t
0v
1w
1}
1!"
0."
#130000000
1!
1)
b0101 3
b1011 4
1;
0<
1=
b0101 >
b010101 ?
1@
b0101 A
b1011 D
1E
b1011 K
b1111 P
b0000 Q
b100 R
b001 T
1V
0W
1Y
0`
1a
0c
1e
1g
0h
0i
0t
0}
1."
#140000000
0!
0)
0;
1<
0=
0@
0E
1i
0m
0o
0r
b1 s
1t
0x
0z
b1010U {
b100 |
1}
0""
0."
#150000000
1!
1)
b1010 3
b0101 4
07
18
1;
0<
1=
b1010 >
b101010 ?
1@
b1010 A
b0101 D
1E
b0101 K
0M
1N
b0000 P
b1111 Q
b000 R
b000 S
b111 T
0[
0]
1^
1`
0a
1c
0e
0g
1h
0i
1j
0t
1u
0}
0&"
1'"
1."
#160000000
0!
b0UUUU #
0)
b0UUUU +
0;
1<
0=
0@
0E
1i
b0UUUU k
b10 s
1t
b101UU {
b11 |
1}
b0UUUU #"
b0UUUU $"
0."
#170000000
1!
1)
b0101 3
b1010 4
06
17
08
1;
0<
1=
b0101 >
b110101 ?
1@
b0101 A
b1010 D
1E
b1010 K
0L
1M
0N
b0000 O
b1111 P
b0000 Q
b101 R
b010 S
b000 T
0V
1W
0Y
1[
1]
0^
0`
1a
0c
1e
1g
0h
0i
0j
0t
0u
0}
0%"
1&"
0'"
1."
#180000000
0!
b00UUU #
0)
b00UUU +
0;
1<
0=
0@
0E
1i
b00UUU k
1m
1r
b11 s
1t
1x
b10UUU {
b10 |
1}
1""
b00UUU #"
b00UUU $"
0."
#190000000
1!
1)
b1010 3
b0101 4
07
18
1;
0<
1=
b1010 >
b111010 ?
1@
b1010 A
b0101 D
1E
b0101 K
0M
1N
b0000 P
b1111 Q
b000 R
b000 S
b111 T
1V
0W
1Y
0[
0]
1^
1`
0a
1c
0e
0g
1h
0i
1j
0t
1u
0}
0&"
1'"
1."
#200000000
0!
b100UU #
0)
b100UU +
0;
1<
0=
0@
0E
1i
b100UU k
0m
0r
b100 s
1t
0x
b1UUUU {
b1 |
1}
0""
b100UU #"
b100UU $"
0."
#210000000
1!
1)
b1101 3
b1010 4
06
17
08
1;
0<
1=
b1101 >
b111101 ?
1@
b1101 A
b1010 D
1E
b1010 K
0L
1M
0N
b0000 O
b1111 P
b0000 Q
b101 R
b010 S
b000 T
0V
1W
0Y
1[
1]
0^
0`
1a
0c
1e
1g
0h
0i
0j
0t
0u
0}
0%"
1&"
0'"
1."
#220000000
0!
b0100U #
0)
b0100U +
0;
1<
0=
0@
0E
1i
b0100U k
1m
1n
1r
b101 s
1t
1x
1y
bUUUUU {
b0 |
1}
1""
b0100U #"
b0100U $"
0."
#230000000
1!
1)
b1110 3
b1101 4
1;
0<
1=
b1110 >
b111110 ?
1@
b1110 A
b1101 D
1E
b1101 K
b000 R
b000 S
b111 T
1V
0W
1Y
0[
0]
1^
1`
0a
1c
0i
0t
0}
1."
#240000000
0!
b10100 #
0)
b10100 +
0;
1<
0=
0@
0E
1i
b10100 k
0l
Um
0q
Ur
1t
0w
Ux
1}
0!"
U""
b10100 #"
b10100 $"
0."
#250000000
1!
1)
b1111 3
b1110 4
1;
0<
1=
b1111 >
b111111 ?
1@
b1111 A
b1110 D
1E
b1110 K
b001 R
b010 S
b100 T
0V
1W
0Y
1[
1]
0^
0i
0t
0}
1."
